…
  group_by(year)%>%
  count()%>%
  ungroup()%>%
  inner_join(
    data_us %>%group_by(year)%>%summarize(total_n = n())%>%ungroup(), by = c('year'='year'))%>%
  mutate(pct_gender_neutral = (n/total_n)*100)%>%
  select(year, pct_gender_neutral)%>%
  right_join(data.frame(year = 1880:2020,pct_gender_neutral = 0),by = c('year'='year'))%>%
  mutate(pct_gender_neutral = ifelse(is.na(pct_gender_neutral.x), pct_gender_neutral.y, pct_gender_neutral.x))%>%
  arrange(year)%>%
  select(year, pct_gender_neutral)
dat_us
```

    ## # A tibble: 141 x 2
    ##     year pct_gender_neutral
    ##    <int>              <dbl>
    ##  1  1880               1.45
    ##  2  1881               1.50
    ##  3  1882               1.65
    ##  4  1883               1.30
    ##  5  1884               1.65
    ##  6  1885               1.53
    ##  7  1886               1.76
    ##  8  1887               1.64
    ##  9  1888               1.96
    ## 10  1889               2.01
    ## # ... with 131 more rows
…
inner_join(data_us[data_us$gender=='M',],
           data_us[data_us$gender=='F',],
           by=c('name'='name','year'='year'))%>%
  mutate(pct_male = 100*(n.x/(n.x+n.y)))%>%
  filter(pct_male>=25 & pct_male <=75)%>%
  filter(n.x>1000)%>%
  mutate(gen_neutral = abs(pct_male - 50))%>%
  group_by(year)%>%
  slice_min(gen_neutral,n = 4)%>%
  ungroup()%>%
  arrange(desc(year))%>%
  select(year, name)
```

    ## # A tibble: 428 x 2
    ##     year name   
    ##    <int> <chr>  
    ##  1  2020 Charlie
    ##  2  2020 Finley 
    ##  3  2020 Phoenix
    ##  4  2020 Blake  
    ##  5  2019 Charlie
    ##  6  2019 Finley 
    ##  7  2019 Phoenix
    ##  8  2019 Emerson
    ##  9  2018 Charlie
    ## 10  2018 Finley 
    ## # ... with 418 more rows
…
